South African Open Hospital Data Analysis
…
28

KEMRI/WHO

20

Combining information from different datasets

As we stated earlier on in the document, the ultimate goal is to build a dataset that will contain information about each of the facilities listed in all of the datasets but with descriptive information about each facility combined into a single entry in the final table.

It appears as if some datasets (notably DOH DHB 2016 and 2018 as well as DOH DD) contains the same facility more than once with different types described.

When we analyse facility names, it is important to note that some of the bigger chains (Dischem, Clicks) may have several branches in a single city, while more specific names may be used in more than one location in the country.

## # A tibble: 1,132 x 6
## # Groups:   fac_name, admin1_abb, admin2_abb, admin3_name [1,077]
##    fac_name            admin1_abb admin2_abb admin3_name  admin4_name    num_fac
##    <chr>               <chr>      <chr>      <chr>        <chr>            <int>
##  1 <NA>                KZ         <NA>       Nkandla      Nkandla Ward 2       8
##  2 <NA>                WC         <NA>       George       Dormehls Drift       7
##  3 Clicks              GP         <NA>       Pretoria     Tshwane Ward        5
##  4 Clicks              LP         <NA>       Polokwane    Polokwane War       5
##  5 THINK SITE CLINIC- KZ         <NA>       <NA>         eThekwini War       4
##  6 <NA>                GP         <NA>       Johannesburg Johannesburg        4
##  7 <NA>                GP         <NA>       <NA>         Ekurhuleni Wa       4
##  8 <NA>                LP         <NA>       Bela Bela    Bela-Bela War       4
##  9 Clicks              GP         <NA>       Pretoria     Tshwane Ward 1       3
## 10 Clicks              GP         <NA>       Pretoria     Tshwane Ward        3
## #  with 1,122 more rows

## # A tibble: 7,186 x 3
## # Groups:   fac_name [7,144]
##    fac_name                                  admin1_abb num_fac
##    <chr>                                     <chr>        <int>
##  1 !Khara Hais Local Municipality - LG EHS   NC               1
##  2 !Khara Hais Local Municipality - Prov EHS NC               1
##  3 !Kheis sub-District Office                NC               1
##  4 ?                                         MP               1
##  5 @ Peace Palliative Intermediate Care      WC               1
##  6 @Health Medical Centre                    GP               1
##  7 1 Military Hospital                       GP               1
##  8 3 Military Hospital                       FS               1
##  9 70th Fourth Avenue Dental Surgery         EC               1
## 10 8 SAI (SANDF) Clinic                      NC               1
## #  with 7,176 more rows
